<?xml version="1.0" encoding="utf-8"?>
<!-- Generator: Adobe Illustrator 18.1.1, SVG Export Plug-In . SVG Version: 6.00 Build 0)  -->
<!DOCTYPE svg PUBLIC "-//W3C//DTD SVG 1.1//EN" "http://www.w3.org/Graphics/SVG/1.1/DTD/svg11.dtd">
<svg version="1.1" id="Layer_1" xmlns="http://www.w3.org/2000/svg" xmlns:xlink="http://www.w3.org/1999/xlink" x="0px" y="0px"
	 viewBox="0 0 1280 800" enable-background="new 0 0 1280 800" xml:space="preserve">
<g>
	<polygon fill="#FFFFFF" points="647.2,463.5 604.1,389.2 647.2,314.9 733.5,314.9 776.6,389.2 733.5,463.5 	"/>
	<g>
		<path fill="#FFFFFF" d="M929.5,798.1c-2.4-12.9-17.3-32.1-48.4-32.1c-48.4,0-129.4,34.5-188.4,34.5
			C489.5,800,338.5,613.5,338.5,400.7C338.5,186.5,485.2,0,687.5,0c51.8,0,119.4,29.2,169.2,29.2c30.2,0,51.8-13.9,53.7-25.9
			c0-2.4,12-2.4,12,0v255c0,1.9-12,1.9-12,0c0-106.4-117.4-245.4-222.9-245.4c-48.4,0-84.8,9.6-115,40.7c-49.9,51.8-69,160.6-69,347
			s19.2,295.3,69,346.6c30.2,31.2,72.4,40.7,120.8,40.7c130.4,0,236.8-140,236.8-280.9c0-2.4,12-2.4,12,0v291
			C941.5,799,931,799,929.5,798.1z"/>
	</g>
</g>
</svg>
